Valuation Office Open Data
…
Some summary reports and some visualisations.

# lets read in the data to get some decent column types assigned
ireland_valoff_records <- read_csv("op/ireland_vo_records.csv") %>% 
mutate(`Property Number` = as.character(`Property Number`))

The dfSummary function is somewhat time intensive, so has been commented out for repeated runs of this script.

library(summarytools)

#dfSummary(ireland_valoff_records) %>% view()

head(ireland_valoff_records, 1000)

## # A tibble: 1,000 x 20
##    `Property Numbe~ `Publication Da~ County `Local Authorit~ Valuation Category
##    <chr>            <chr>            <chr>  <chr>                <dbl> <chr>   
##  1 590607           31/12/2013       DUBLIN DUBLIN CITY COU~      3250 OFFICE  
##  2 590608           31/12/2013       DUBLIN DUBLIN CITY COU~      3090 OFFICE  
##  3 590566           31/12/2013       DUBLIN DUBLIN CITY COU~      7630 OFFICE  
##  4 590715           31/12/2013       DUBLIN DUBLIN CITY COU~      6400 RETAIL ~
##  5 590805           31/12/2013       DUBLIN DUBLIN CITY COU~     27900 RETAIL ~
##  6 590805           31/12/2013       DUBLIN DUBLIN CITY COU~     27900 RETAIL ~
##  7 590912           31/12/2013       DUBLIN DUBLIN CITY COU~      9520 OFFICE  
##  8 590557           31/12/2013       DUBLIN DUBLIN CITY COU~     14960 RETAIL ~
##  9 590719           07/08/2014       DUBLIN DUBLIN CITY COU~     16110 RETAIL ~
## 10 590719           07/08/2014       DUBLIN DUBLIN CITY COU~     16110 RETAIL ~
## # ... with 990 more rows, and 14 more variables: Uses <chr>, `Address 1` <chr>,
## #   `Address 2` <chr>, `Address 3` <chr>, `Address 4` <chr>, `Address 5` <chr>,
## #   `Car Park` <dbl>, `X ITM` <dbl>, `Y ITM` <dbl>, Level <chr>, `Floor
## #   Use` <chr>, Area <dbl>, `Nav Per M2` <dbl>, Nav <dbl>
…
property_records %>% 
  filter(total_area > 1000000) %>% 
  arrange(desc(total_area))

## # A tibble: 40 x 17
##    `Property Numbe~ County `Local Authorit~ Valuation Category Uses  `Address 1`
##    <chr>            <chr>  <chr>                <dbl> <chr>    <chr> <chr>      
##  1 2181602          DUBLIN SOUTH DUBLIN CO~   8566000 UTILITY  NETW~ Storm Wate~
##  2 1739214          KILDA~ KILDARE COUNTY ~   1493000 UTILITY  NETW~ Sundry Tow~
##  3 2209450          LOUTH  LOUTH COUNTY CO~    506000 FUEL/DE~ MOTO~ LOCAL NO/M~
##  4 2209451          LOUTH  LOUTH COUNTY CO~    488000 FUEL/DE~ MOTO~ LOCAL NO/M~
##  5 5007301          WICKL~ WICKLOW COUNTY ~    540000 FUEL/DE~ MOTO~ LOCAL NO/M~
##  6 5005713          TIPPE~ TIPPERARY COUNT~    523000 FUEL/DE~ MOTO~ LOCAL NO/M~
##  7 2211239          TIPPE~ TIPPERARY COUNT~    350000 FUEL/DE~ MOTO~ Wallers Lo~
##  8 5005902          TIPPE~ TIPPERARY COUNT~    421000 FUEL/DE~ MOTO~ LOCAL NO/M~
##  9 2008904          WEXFO~ WEXFORD COUNTY ~    224000 FUEL/DE~ OIL ~ 11C MARSHM~
## 10 2211665          KILDA~ KILDARE COUNTY ~    348000 FUEL/DE~ MOTO~ Local No/M~
## # ... with 30 more rows, and 10 more variables: `Address 2` <chr>, `Address
## #   3` <chr>, `Address 4` <chr>, `Address 5` <chr>, `X ITM` <dbl>, `Y
## #   ITM` <dbl>, total_area <dbl>, num_levels <int>, min_level <chr>,
## #   max_level <chr>
…
